<?xml version="1.0" standalone="no"?>
<!DOCTYPE svg PUBLIC "-//W3C//DTD SVG 20010904//EN"
 "http://www.w3.org/TR/2001/REC-SVG-20010904/DTD/svg10.dtd">
<svg version="1.0" xmlns="http://www.w3.org/2000/svg"
 width="180.000000pt" height="180.000000pt" viewBox="0 0 180.000000 180.000000"
 preserveAspectRatio="xMidYMid meet">
<metadata>
Created by potrace 1.15, written by Peter Selinger 2001-2017
</metadata>
<g transform="translate(0.000000,180.000000) scale(0.100000,-0.100000)"
fill="#000000" stroke="none">
<path d="M695 1776 c-22 -13 -85 -49 -140 -81 -283 -165 -356 -207 -427 -247
l-78 -43 0 -486 0 -487 26 -17 c14 -9 116 -68 227 -132 111 -64 229 -132 262
-151 33 -19 78 -45 100 -57 22 -13 60 -35 85 -49 41 -23 55 -26 154 -26 l110
0 305 176 c168 97 332 193 364 212 l57 35 0 487 0 486 -37 21 c-21 11 -83 46
-138 78 -120 70 -155 90 -220 127 -82 47 -138 80 -170 99 -128 78 -133 79
-292 79 -136 -1 -151 -3 -188 -24z m-324 -591 c134 -76 258 -145 274 -155 17
-9 53 -29 80 -44 28 -16 68 -39 90 -52 l40 -23 -3 -445 -2 -446 -38 24 -37 23
-5 408 -5 408 -195 110 c-107 60 -213 119 -235 132 -22 12 -56 31 -75 42 -19
11 -57 32 -85 47 -71 40 -75 44 -75 83 0 25 4 34 13 30 8 -3 124 -67 258 -142z
m1301 -28 c-7 -16 -66 -115 -131 -220 -65 -106 -193 -316 -286 -467 -92 -151
-177 -291 -190 -310 -12 -19 -29 -46 -37 -60 -9 -14 -35 -35 -57 -48 l-41 -23
0 434 0 434 40 27 40 26 0 -345 c0 -223 4 -345 10 -345 6 0 10 4 10 10 0 5 6
7 14 4 9 -3 23 11 38 38 23 39 110 182 393 643 54 88 121 198 149 245 l51 85
5 -50 c4 -32 1 -60 -8 -78z"/>
</g>
</svg>
